{
  "definitions": {},
  "$schema": "http://json-schema.org/draft-07/schema#",
  "$id": "http://example.com/root.json",
  "type": "array",
  "title": "The Root Schema",
  "items": {
    "$id": "#/items",
    "type": "object",
    "title": "The Items Schema",
    "required": [
      "visual",
      "handy",
      "value",
      "origin",
      "type"
    ],
    "properties": {
      "visual": {
        "$id": "#/items/properties/visual",
        "type": "object",
        "title": "The Visual Schema",
        "required": [
          "bloodFlow",
          "material",
          "sleeve",
          "blade"
        ],
        "properties": {
          "bloodFlow": {
            "$id": "#/items/properties/visual/properties/bloodFlow",
            "type": "string",
            "title": "The Bloodflow Schema",
            "default": "",
            "examples": [
              "false"
            ],
            "pattern": "^(.*)$"
          },
          "material": {
            "$id": "#/items/properties/visual/properties/material",
            "type": "string",
            "title": "The Material Schema",
            "default": "",
            "examples": [
              "steel"
            ],
            "pattern": "^(.*)$"
          },
          "sleeve": {
            "$id": "#/items/properties/visual/properties/sleeve",
            "type": "string",
            "title": "The Sleeve Schema",
            "default": "",
            "examples": [
              "wood"
            ],
            "pattern": "^(.*)$"
          },
          "blade": {
            "$id": "#/items/properties/visual/properties/blade",
            "type": "object",
            "title": "The Blade Schema",
            "required": [
              "length",
              "width"
            ],
            "properties": {
              "length": {
                "$id": "#/items/properties/visual/properties/blade/properties/length",
                "type": "string",
                "title": "The Length Schema",
                "default": "",
                "examples": [
                  "15"
                ],
                "pattern": "^(.*)$"
              },
              "width": {
                "$id": "#/items/properties/visual/properties/blade/properties/width",
                "type": "string",
                "title": "The Width Schema",
                "default": "",
                "examples": [
                  "1"
                ],
                "pattern": "^(.*)$"
              }
            }
          }
        }
      },
      "handy": {
        "$id": "#/items/properties/handy",
        "type": "string",
        "title": "The Handy Schema",
        "default": "",
        "examples": [
          "1"
        ],
        "pattern": "^(.*)$"
      },
      "value": {
        "$id": "#/items/properties/value",
        "type": "string",
        "title": "The Value Schema",
        "default": "",
        "examples": [
          "false"
        ],
        "pattern": "^(.*)$"
      },
      "origin": {
        "$id": "#/items/properties/origin",
        "type": "string",
        "title": "The Origin Schema",
        "default": "",
        "examples": [
          "Ukraine"
        ],
        "pattern": "^(.*)$"
      },
      "type": {
        "$id": "#/items/properties/type",
        "type": "string",
        "title": "The Type Schema",
        "default": "",
        "examples": [
          "KNIFE"
        ],
        "pattern": "^(.*)$"
      }
    }
  }
}